p8105\_hw5\_jl5549
================

``` r
set.seed(10)

iris_with_missing = iris %>% 
  map_df(~replace(.x, sample(1:150, 20), NA)) %>%
  mutate(Species = as.character(Species))
iris_with_missing
```

    ## # A tibble: 150 x 5
    ##    Sepal.Length Sepal.Width Petal.Length Petal.Width Species
    ##           <dbl>       <dbl>        <dbl>       <dbl> <chr>  
    ##  1          5.1         3.5          1.4         0.2 setosa 
    ##  2          4.9         3            1.4         0.2 setosa 
    ##  3          4.7         3.2          1.3         0.2 setosa 
    ##  4          4.6         3.1          1.5        NA   setosa 
    ##  5          5           3.6          1.4         0.2 setosa 
    ##  6          5.4         3.9          1.7         0.4 setosa 
    ##  7         NA           3.4          1.4         0.3 setosa 
    ##  8          5           3.4          1.5         0.2 setosa 
    ##  9          4.4         2.9          1.4         0.2 setosa 
    ## 10          4.9         3.1         NA           0.1 setosa 
    ## # … with 140 more rows
…
``` r
datasets3
```

    ## # A tibble: 60,000 x 4
    ##    beta1 results        estimate    p.value
    ##    <int> <chr>             <dbl>      <dbl>
    ##  1     1 fail_to_reject   0.0877 0.947     
    ##  2     2 reject           4.11   0.000880  
    ##  3     3 reject           3.81   0.00200   
    ##  4     4 reject           6.03   0.0000401 
    ##  5     5 reject           6.06   0.00000214
    ##  6     6 reject           4.52   0.000369  
    ##  7     1 fail_to_reject   1.67   0.166     
    ##  8     2 fail_to_reject   0.756  0.646     
    ##  9     3 reject           3.22   0.0312    
    ## 10     4 reject           4.22   0.00162   
    ## # … with 59,990 more rows
…
